{

    "paging": {
        "page": 1,
        "total": 3707,
        "page_size": 20,
        "pages": 186
    },
    "loans": [
        {
            "id": 504145,
            "name": "Francisco Javier",
            "description": {
                "languages": [
                    "es",
                    "en"
                ]
            },
            "status": "fundraising",
            "funded_amount": 0,
            "basket_amount": 0,
            "image": {
                "id": 1243450,
                "template_id": 1
            },
            "activity": "Higher education costs",
            "sector": "Education",
            "use": "to pay enrollment fee and monthly tuition.",
            "location": {
                "country_code": "NI",
                "country": "Nicaragua",
                "town": "Esteli",
                "geo": {
                    "level": "town",
                    "pairs": "13.166667 -86.333333",
                    "type": "point"
                }
            },
            "partner_id": 74,
            "posted_date": "2012-12-05T17:30:09Z",
            "planned_expiration_date": "2013-01-04T17:30:09Z",
            "loan_amount": 425,
            "borrower_count": 1
        },
        {
            "id": 504146,
            "name": "Martha Clelin",
            "description": {
                "languages": [
                    "es",
                    "en"
                ]
            },
            "status": "fundraising",
            "funded_amount": 0,
            "basket_amount": 0,
            "image": {
                "id": 1243457,
                "template_id": 1
            },
            "activity": "Personal Housing Expenses",
            "sector": "Housing",
            "use": "to buy building maerials and supplies.",
            "location": {
                "country_code": "NI",
                "country": "Nicaragua",
                "town": "Esteli",
                "geo": {
                    "level": "town",
                    "pairs": "13.166667 -86.333333",
                    "type": "point"
                }
            },
            "partner_id": 74,
            "posted_date": "2012-12-05T17:30:09Z",
            "planned_expiration_date": "2013-01-04T17:30:09Z",
            "loan_amount": 375,
            "borrower_count": 1
        },
        {
            "id": 504034,
            "name": "Shuhratjon",
            "description": {
                "languages": [
                    "en"
                ]
            },
            "status": "fundraising",
            "funded_amount": 0,
            "basket_amount": 0,
            "image": {
                "id": 1249292,
                "template_id": 1
            },
            "activity": "Consumer Goods",
            "sector": "Personal Use",
            "use": "To buy a TV set for his family",
            "location": {
                "country_code": "TJ",
                "country": "Tajikistan",
                "town": "Gonchi",
                "geo": {
                    "level": "country",
                    "pairs": "39 71",
                    "type": "point"
                }
            },
            "partner_id": 100,
            "posted_date": "2012-12-05T17:30:02Z",
            "planned_expiration_date": "2013-01-04T17:30:02Z",
            "loan_amount": 425,
            "borrower_count": 1
        },
        {
            "id": 504129,
            "name": "Ricardo Jose",
            "description": {
                "languages": [
                    "es",
                    "en"
                ]
            },
            "status": "fundraising",
            "funded_amount": 0,
            "basket_amount": 0,
            "image": {
                "id": 1249463,
                "template_id": 1
            },
            "activity": "Retail",
            "sector": "Retail",
            "use": "to stock his store.",
            "location": {
                "country_code": "NI",
                "country": "Nicaragua",
                "town": "Managua",
                "geo": {
                    "level": "town",
                    "pairs": "12.150833 -86.268333",
                    "type": "point"
                }
            },
            "partner_id": 98,
            "posted_date": "2012-12-05T17:30:02Z",
            "planned_expiration_date": "2013-01-04T17:30:02Z",
            "loan_amount": 1000,
            "borrower_count": 1
        },
        {
            "id": 504140,
            "name": "Moises",
            "description": {
                "languages": [
                    "es",
                    "en"
                ]
            },
            "status": "fundraising",
            "funded_amount": 0,
            "basket_amount": 0,
            "image": {
                "id": 1249482,
                "template_id": 1
            },
            "activity": "Office Supplies",
            "sector": "Retail",
            "use": "to buy paper in packages of a thousand and ink for his copy machine. ",
            "location": {
                "country_code": "PE",
                "country": "Peru",
                "town": "HUANCAYO",
                "geo": {
                    "level": "town",
                    "pairs": "-12.066667 -75.233333",
                    "type": "point"
                }
            },
            "partner_id": 71,
            "posted_date": "2012-12-05T17:30:02Z",
            "planned_expiration_date": "2013-01-04T17:30:02Z",
            "loan_amount": 400,
            "borrower_count": 1
        },
        {
            "id": 504141,
            "name": "Moradita Group",
            "description": {
                "languages": [
                    "es",
                    "en"
                ]
            },
            "status": "fundraising",
            "funded_amount": 0,
            "basket_amount": 0,
            "image": {
                "id": 1249488,
                "template_id": 1
            },
            "activity": "Butcher Shop",
            "sector": "Food",
            "use": "to buy meat.",
            "location": {
                "country_code": "BO",
                "country": "Bolivia",
                "town": "La Paz / El Alto",
                "geo": {
                    "level": "town",
                    "pairs": "-16.483333 -68.183333",
                    "type": "point"
                }
            },
            "partner_id": 59,
            "posted_date": "2012-12-05T17:30:02Z",
            "planned_expiration_date": "2013-01-04T17:30:02Z",
            "loan_amount": 1775,
            "borrower_count": 6
        },
        {
            "id": 504144,
            "name": "Isidoro",
            "description": {
                "languages": [
                    "es",
                    "en"
                ]
            },
            "status": "fundraising",
            "funded_amount": 0,
            "basket_amount": 0,
            "image": {
                "id": 1249487,
                "template_id": 1
            },
            "activity": "Personal Housing Expenses",
            "sector": "Housing",
            "use": "to buy building materials to repair the floor and lay tile.",
            "location": {
                "country_code": "NI",
                "country": "Nicaragua",
                "town": "Managua",
                "geo": {
                    "level": "town",
                    "pairs": "12.150833 -86.268333",
                    "type": "point"
                }
            },
            "partner_id": 98,
            "posted_date": "2012-12-05T17:30:02Z",
            "planned_expiration_date": "2013-01-04T17:30:02Z",
            "loan_amount": 1250,
            "borrower_count": 1
        },
        {
            "id": 504025,
            "name": "Maibem Leirak Group",
            "description": {
                "languages": [
                    "en"
                ]
            },
            "status": "fundraising",
            "funded_amount": 0,
            "basket_amount": 0,
            "image": {
                "id": 1249190,
                "template_id": 1
            },
            "activity": "Weaving",
            "sector": "Arts",
            "use": "To buy stocks of yarns in different colours and textures for weaving and to buy finished products from other weavers to sell.",
            "location": {
                "country_code": "IN",
                "country": "India",
                "town": "Imphal East",
                "geo": {
                    "level": "country",
                    "pairs": "20 77",
                    "type": "point"
                }
            },
            "partner_id": 238,
            "posted_date": "2012-12-05T17:30:01Z",
            "planned_expiration_date": "2013-01-04T17:30:01Z",
            "loan_amount": 1850,
            "borrower_count": 10
        },
        {
            "id": 504143,
            "name": "Fernando Antonio",
            "description": {
                "languages": [
                    "es",
                    "en"
                ]
            },
            "status": "fundraising",
            "funded_amount": 0,
            "basket_amount": 0,
            "image": {
                "id": 1247259,
                "template_id": 1
            },
            "activity": "Clothing Sales",
            "sector": "Clothing",
            "use": "to buy assorted clothes.",
            "location": {
                "country_code": "NI",
                "country": "Nicaragua",
                "town": "Granada",
                "geo": {
                    "level": "country",
                    "pairs": "13 -85",
                    "type": "point"
                }
            },
            "partner_id": 176,
            "posted_date": "2012-12-05T17:10:09Z",
            "planned_expiration_date": "2013-01-04T17:10:09Z",
            "loan_amount": 350,
            "borrower_count": 1
        },
        {
            "id": 504139,
            "name": "Gloria Esther",
            "description": {
                "languages": [
                    "es",
                    "en"
                ]
            },
            "status": "fundraising",
            "funded_amount": 0,
            "basket_amount": 0,
            "image": {
                "id": 1249483,
                "template_id": 1
            },
            "activity": "Retail",
            "sector": "Retail",
            "use": "to buy bananas, onions, potatoes, oranges, lemons, melons, etc.",
            "location": {
                "country_code": "NI",
                "country": "Nicaragua",
                "town": "Granada",
                "geo": {
                    "level": "country",
                    "pairs": "13 -85",
                    "type": "point"
                }
            },
            "partner_id": 176,
            "posted_date": "2012-12-05T17:10:08Z",
            "planned_expiration_date": "2013-01-04T17:10:08Z",
            "loan_amount": 225,
            "borrower_count": 1
        },
        {
            "id": 504031,
            "name": "Johnson",
            "description": {
                "languages": [
                    "en"
                ]
            },
            "status": "fundraising",
            "funded_amount": 0,
            "basket_amount": 0,
            "image": {
                "id": 1249293,
                "template_id": 1
            },
            "activity": "Farming",
            "sector": "Agriculture",
            "use": "to purchase a mobile phone, solar charging set and weighing scale so that he may provide vital farming information to his community.",
            "location": {
                "country_code": "UG",
                "country": "Uganda",
                "town": "Mityana",
                "geo": {
                    "level": "town",
                    "pairs": "0.4175 32.022778",
                    "type": "point"
                }
            },
            "partner_id": 259,
            "posted_date": "2012-12-05T17:10:02Z",
            "planned_expiration_date": "2013-01-04T17:10:02Z",
            "loan_amount": 325,
            "borrower_count": 1
        },
        {
            "id": 504033,
            "name": "Dominga",
            "description": {
                "languages": [
                    "en"
                ]
            },
            "status": "fundraising",
            "funded_amount": 0,
            "basket_amount": 0,
            "image": {
                "id": 1249081,
                "template_id": 1
            },
            "activity": "Food",
            "sector": "Food",
            "use": "to buy more ingredients for her food vending business like sugar, flour, butter and groceries for her variety store",
            "location": {
                "country_code": "PH",
                "country": "Philippines",
                "town": "Ubay, Bohol",
                "geo": {
                    "level": "country",
                    "pairs": "13 122",
                    "type": "point"
                }
            },
            "partner_id": 125,
            "posted_date": "2012-12-05T17:10:02Z",
            "planned_expiration_date": "2013-01-04T17:10:02Z",
            "loan_amount": 200,
            "borrower_count": 1
        },
        {
            "id": 504035,
            "name": "Poni",
            "description": {
                "languages": [
                    "en"
                ]
            },
            "status": "fundraising",
            "funded_amount": 0,
            "basket_amount": 0,
            "image": {
                "id": 1022746,
                "template_id": 1
            },
            "activity": "Food Market",
            "sector": "Food",
            "use": "to purchase more tomatoes, onions and other food items. ",
            "location": {
                "country_code": "QS",
                "country": "South Sudan",
                "town": "Juba",
                "geo": {
                    "level": "country",
                    "pairs": "4.85 31.6",
                    "type": "point"
                }
            },
            "partner_id": 206,
            "posted_date": "2012-12-05T17:10:02Z",
            "planned_expiration_date": "2013-01-04T17:10:02Z",
            "loan_amount": 475,
            "borrower_count": 1
        },
        {
            "id": 503306,
            "name": "Zamira",
            "description": {
                "languages": [
                    "ru",
                    "en"
                ]
            },
            "status": "fundraising",
            "funded_amount": 0,
            "basket_amount": 0,
            "image": {
                "id": 1244168,
                "template_id": 1
            },
            "activity": "Personal Purchases",
            "sector": "Personal Use",
            "use": "to buy furniture.",
            "location": {
                "country_code": "TJ",
                "country": "Tajikistan",
                "town": "Kairaqum",
                "geo": {
                    "level": "country",
                    "pairs": "39 71",
                    "type": "point"
                }
            },
            "partner_id": 215,
            "posted_date": "2012-12-05T17:10:01Z",
            "planned_expiration_date": "2013-01-04T17:10:01Z",
            "loan_amount": 425,
            "borrower_count": 1
        },
        {
            "id": 504030,
            "name": "Stanley",
            "description": {
                "languages": [
                    "en"
                ]
            },
            "status": "fundraising",
            "funded_amount": 0,
            "basket_amount": 0,
            "image": {
                "id": 1249289,
                "template_id": 1
            },
            "activity": "Motorcycle Transport",
            "sector": "Transportation",
            "use": "To buy another motorbike",
            "location": {
                "country_code": "KE",
                "country": "Kenya",
                "geo": {
                    "level": "country",
                    "pairs": "1 38",
                    "type": "point"
                }
            },
            "partner_id": 142,
            "posted_date": "2012-12-05T16:50:02Z",
            "planned_expiration_date": "2013-01-04T16:50:02Z",
            "loan_amount": 1250,
            "borrower_count": 1
        },
        {
            "id": 504137,
            "name": "Consuelo Del Carmen",
            "description": {
                "languages": [
                    "es",
                    "en"
                ]
            },
            "status": "fundraising",
            "funded_amount": 0,
            "basket_amount": 0,
            "image": {
                "id": 1242297,
                "template_id": 1
            },
            "activity": "Services",
            "sector": "Services",
            "use": "to sustain her business, buy paint and improve her business",
            "location": {
                "country_code": "NI",
                "country": "Nicaragua",
                "town": "Managua",
                "geo": {
                    "level": "town",
                    "pairs": "12.150833 -86.268333",
                    "type": "point"
                }
            },
            "partner_id": 74,
            "posted_date": "2012-12-05T16:50:02Z",
            "planned_expiration_date": "2013-01-04T16:50:02Z",
            "loan_amount": 750,
            "borrower_count": 1
        },
        {
            "id": 504026,
            "name": "Rebar's Group",
            "description": {
                "languages": [
                    "en"
                ]
            },
            "status": "fundraising",
            "funded_amount": 0,
            "basket_amount": 0,
            "image": {
                "id": 1249287,
                "template_id": 1
            },
            "activity": "Barber Shop",
            "sector": "Services",
            "use": "To pay for the renovation of his barber shop",
            "location": {
                "country_code": "IQ",
                "country": "Iraq",
                "geo": {
                    "level": "country",
                    "pairs": "33 44",
                    "type": "point"
                }
            },
            "partner_id": 216,
            "posted_date": "2012-12-05T16:50:01Z",
            "planned_expiration_date": "2013-01-04T16:50:01Z",
            "loan_amount": 6300,
            "borrower_count": 3
        },
        {
            "id": 504125,
            "name": "Las Margaritas Group",
            "description": {
                "languages": [
                    "es",
                    "en"
                ]
            },
            "status": "fundraising",
            "funded_amount": 25,
            "basket_amount": 50,
            "image": {
                "id": 1247305,
                "template_id": 1
            },
            "activity": "Utilities",
            "sector": "Services",
            "use": "to maintain the cars used for a taxi service",
            "location": {
                "country_code": "MX",
                "country": "Mexico",
                "town": "Zitacuaro, Estado de Michoacán.",
                "geo": {
                    "level": "country",
                    "pairs": "23 -102",
                    "type": "point"
                }
            },
            "partner_id": 130,
            "posted_date": "2012-12-05T16:30:25Z",
            "planned_expiration_date": "2013-01-04T16:30:25Z",
            "loan_amount": 5575,
            "borrower_count": 11
        },
        {
            "id": 504023,
            "name": "Tuamke Group",
            "description": {
                "languages": [
                    "en"
                ]
            },
            "status": "fundraising",
            "funded_amount": 250,
            "basket_amount": 50,
            "image": {
                "id": 1248685,
                "template_id": 1
            },
            "activity": "Farming",
            "sector": "Agriculture",
            "use": "To purchase fertilizer and commercial maize and sorghum seed",
            "location": {
                "country_code": "KE",
                "country": "Kenya",
                "town": "Lugari",
                "geo": {
                    "level": "country",
                    "pairs": "1 38",
                    "type": "point"
                }
            },
            "partner_id": 202,
            "posted_date": "2012-12-05T16:30:14Z",
            "planned_expiration_date": "2013-01-04T16:30:14Z",
            "loan_amount": 850,
            "borrower_count": 20
        },
        {
            "id": 504024,
            "name": "Adam",
            "description": {
                "languages": [
                    "en"
                ]
            },
            "status": "fundraising",
            "funded_amount": 150,
            "basket_amount": 25,
            "image": {
                "id": 925344,
                "template_id": 1
            },
            "activity": "Food Market",
            "sector": "Food",
            "use": "to purchase items like powdered milk, powdered orange juice, sugar, etc. for his food store.",
            "location": {
                "country_code": "QS",
                "country": "South Sudan",
                "town": "Juba",
                "geo": {
                    "level": "country",
                    "pairs": "4.85 31.6",
                    "type": "point"
                }
            },
            "partner_id": 206,
            "posted_date": "2012-12-05T16:30:14Z",
            "planned_expiration_date": "2013-01-04T16:30:14Z",
            "loan_amount": 1275,
            "borrower_count": 1
        }
    ]

}