{

    "paging": {
        "page": 1,
        "total": 3816,
        "page_size": 20,
        "pages": 191
    },
    "loans": [
        {
            "id": 505143,
            "name": "Fabricio Edgardo",
            "description": {
                "languages": [
                    "es",
                    "en"
                ]
            },
            "status": "fundraising",
            "funded_amount": 0,
            "basket_amount": 0,
            "image": {
                "id": 1113076,
                "template_id": 1
            },
            "activity": "Farming",
            "sector": "Agriculture",
            "use": "to make a payment toward a threshing machine and to pay for labor. ",
            "location": {
                "country_code": "SV",
                "country": "El Salvador",
                "geo": {
                    "level": "country",
                    "pairs": "13.833333 -88.916667",
                    "type": "point"
                }
            },
            "partner_id": 167,
            "posted_date": "2012-12-09T01:10:04Z",
            "planned_expiration_date": "2013-01-08T01:10:04Z",
            "loan_amount": 375,
            "borrower_count": 1
        },
        {
            "id": 505283,
            "name": "Juan Manuel",
            "description": {
                "languages": [
                    "es",
                    "en"
                ]
            },
            "status": "fundraising",
            "funded_amount": 0,
            "basket_amount": 0,
            "image": {
                "id": 1251421,
                "template_id": 1
            },
            "activity": "Grocery Store",
            "sector": "Food",
            "use": "to buy meats, soft drinks, basic grains, and other items.",
            "location": {
                "country_code": "HN",
                "country": "Honduras",
                "town": "Metrocentro, SPS.",
                "geo": {
                    "level": "country",
                    "pairs": "15 -86.5",
                    "type": "point"
                }
            },
            "partner_id": 201,
            "posted_date": "2012-12-09T00:50:02Z",
            "planned_expiration_date": "2013-01-08T00:50:02Z",
            "loan_amount": 775,
            "borrower_count": 1
        },
        {
            "id": 505008,
            "name": "Marguerite",
            "description": {
                "languages": [
                    "fr",
                    "en"
                ]
            },
            "status": "fundraising",
            "funded_amount": 175,
            "basket_amount": 75,
            "image": {
                "id": 1250926,
                "template_id": 1
            },
            "activity": "Restaurant",
            "sector": "Food",
            "use": "to refurbish her restaurant.",
            "location": {
                "country_code": "CM",
                "country": "Cameroon",
                "town": "Yaoundé",
                "geo": {
                    "level": "country",
                    "pairs": "6 12",
                    "type": "point"
                }
            },
            "partner_id": 217,
            "posted_date": "2012-12-09T00:10:01Z",
            "planned_expiration_date": "2013-01-08T00:10:01Z",
            "loan_amount": 400,
            "borrower_count": 1
        },
        {
            "id": 505279,
            "name": "Pioneras - 26 Group",
            "description": {
                "languages": [
                    "es",
                    "en"
                ]
            },
            "status": "fundraising",
            "funded_amount": 25,
            "basket_amount": 25,
            "image": {
                "id": 1251413,
                "template_id": 1
            },
            "activity": "Bookstore",
            "sector": "Retail",
            "use": "to stock her store.",
            "location": {
                "country_code": "BO",
                "country": "Bolivia",
                "town": "La Paz",
                "geo": {
                    "level": "town",
                    "pairs": "-16.5 -68.15",
                    "type": "point"
                }
            },
            "partner_id": 110,
            "posted_date": "2012-12-08T22:30:02Z",
            "planned_expiration_date": "2013-01-07T22:30:02Z",
            "loan_amount": 3900,
            "borrower_count": 8
        },
        {
            "id": 505275,
            "name": "Juan Angel",
            "description": {
                "languages": [
                    "es",
                    "en"
                ]
            },
            "status": "fundraising",
            "funded_amount": 0,
            "basket_amount": 0,
            "image": {
                "id": 1251406,
                "template_id": 1
            },
            "activity": "Auto Repair",
            "sector": "Services",
            "use": "to buy tools.",
            "location": {
                "country_code": "HN",
                "country": "Honduras",
                "town": "San Lorenzo",
                "geo": {
                    "level": "town",
                    "pairs": "13.416667 -87.45",
                    "type": "point"
                }
            },
            "partner_id": 118,
            "posted_date": "2012-12-08T22:30:01Z",
            "planned_expiration_date": "2013-01-07T22:30:01Z",
            "loan_amount": 275,
            "borrower_count": 1
        },
        {
            "id": 505274,
            "name": "Javier",
            "description": {
                "languages": [
                    "es",
                    "en"
                ]
            },
            "status": "fundraising",
            "funded_amount": 25,
            "basket_amount": 0,
            "image": {
                "id": 1251402,
                "template_id": 1
            },
            "activity": "Grocery Store",
            "sector": "Food",
            "use": "to stock his store.",
            "location": {
                "country_code": "HN",
                "country": "Honduras",
                "town": "San Lorenzo",
                "geo": {
                    "level": "town",
                    "pairs": "13.416667 -87.45",
                    "type": "point"
                }
            },
            "partner_id": 118,
            "posted_date": "2012-12-08T22:10:01Z",
            "planned_expiration_date": "2013-01-07T22:10:01Z",
            "loan_amount": 275,
            "borrower_count": 1
        },
        {
            "id": 505153,
            "name": "Lidia Lissette",
            "description": {
                "languages": [
                    "es",
                    "en"
                ]
            },
            "status": "fundraising",
            "funded_amount": 25,
            "basket_amount": 0,
            "image": {
                "id": 1251175,
                "template_id": 1
            },
            "activity": "Food Stall",
            "sector": "Food",
            "use": "to buy ingredients.",
            "location": {
                "country_code": "SV",
                "country": "El Salvador",
                "geo": {
                    "level": "country",
                    "pairs": "13.833333 -88.916667",
                    "type": "point"
                }
            },
            "partner_id": 167,
            "posted_date": "2012-12-08T21:50:03Z",
            "planned_expiration_date": "2013-01-07T21:50:03Z",
            "loan_amount": 500,
            "borrower_count": 1
        },
        {
            "id": 505154,
            "name": "Juan Jose",
            "description": {
                "languages": [
                    "es",
                    "en"
                ]
            },
            "status": "fundraising",
            "funded_amount": 75,
            "basket_amount": 0,
            "image": {
                "id": 1251177,
                "template_id": 1
            },
            "activity": "Furniture Making",
            "sector": "Manufacturing",
            "use": "to buy lumber.",
            "location": {
                "country_code": "SV",
                "country": "El Salvador",
                "geo": {
                    "level": "country",
                    "pairs": "13.833333 -88.916667",
                    "type": "point"
                }
            },
            "partner_id": 167,
            "posted_date": "2012-12-08T21:50:03Z",
            "planned_expiration_date": "2013-01-07T21:50:03Z",
            "loan_amount": 500,
            "borrower_count": 1
        },
        {
            "id": 505155,
            "name": "Los Amigos Empresarios Group",
            "description": {
                "languages": [
                    "es",
                    "en"
                ]
            },
            "status": "fundraising",
            "funded_amount": 0,
            "basket_amount": 0,
            "image": {
                "id": 1251180,
                "template_id": 1
            },
            "activity": "Food Stall",
            "sector": "Food",
            "use": "to buy ingredients.",
            "location": {
                "country_code": "PE",
                "country": "Peru",
                "town": "Huarochiri",
                "geo": {
                    "level": "town",
                    "pairs": "-11.916667 -76.416667",
                    "type": "point"
                }
            },
            "partner_id": 93,
            "posted_date": "2012-12-08T21:50:03Z",
            "planned_expiration_date": "2013-01-07T21:50:03Z",
            "loan_amount": 1100,
            "borrower_count": 6
        },
        {
            "id": 505156,
            "name": "Jose Simeon",
            "description": {
                "languages": [
                    "es",
                    "en"
                ]
            },
            "status": "fundraising",
            "funded_amount": 0,
            "basket_amount": 0,
            "image": {
                "id": 1251181,
                "template_id": 1
            },
            "activity": "Cereals",
            "sector": "Food",
            "use": "to buy inventory.",
            "location": {
                "country_code": "SV",
                "country": "El Salvador",
                "geo": {
                    "level": "country",
                    "pairs": "13.833333 -88.916667",
                    "type": "point"
                }
            },
            "partner_id": 167,
            "posted_date": "2012-12-08T21:50:03Z",
            "planned_expiration_date": "2013-01-07T21:50:03Z",
            "loan_amount": 1000,
            "borrower_count": 1
        },
        {
            "id": 505157,
            "name": "Cristabel",
            "description": {
                "languages": [
                    "es",
                    "en"
                ]
            },
            "status": "fundraising",
            "funded_amount": 0,
            "basket_amount": 0,
            "image": {
                "id": 1251183,
                "template_id": 1
            },
            "activity": "Cosmetics Sales",
            "sector": "Retail",
            "use": "to buy inventory and supplies.",
            "location": {
                "country_code": "SV",
                "country": "El Salvador",
                "geo": {
                    "level": "country",
                    "pairs": "13.833333 -88.916667",
                    "type": "point"
                }
            },
            "partner_id": 167,
            "posted_date": "2012-12-08T21:50:03Z",
            "planned_expiration_date": "2013-01-07T21:50:03Z",
            "loan_amount": 1025,
            "borrower_count": 1
        },
        {
            "id": 505150,
            "name": "Cristino Rubio",
            "description": {
                "languages": [
                    "es",
                    "en"
                ]
            },
            "status": "fundraising",
            "funded_amount": 0,
            "basket_amount": 0,
            "image": {
                "id": 1251171,
                "template_id": 1
            },
            "activity": "Cattle",
            "sector": "Agriculture",
            "use": "to pay for labor.",
            "location": {
                "country_code": "SV",
                "country": "El Salvador",
                "geo": {
                    "level": "country",
                    "pairs": "13.833333 -88.916667",
                    "type": "point"
                }
            },
            "partner_id": 167,
            "posted_date": "2012-12-08T21:50:02Z",
            "planned_expiration_date": "2013-01-07T21:50:02Z",
            "loan_amount": 1050,
            "borrower_count": 1
        },
        {
            "id": 505151,
            "name": "Perlas Blancas Group",
            "description": {
                "languages": [
                    "es",
                    "en"
                ]
            },
            "status": "fundraising",
            "funded_amount": 50,
            "basket_amount": 0,
            "image": {
                "id": 1251173,
                "template_id": 1
            },
            "activity": "Textiles",
            "sector": "Arts",
            "use": "to buy fabric.",
            "location": {
                "country_code": "BO",
                "country": "Bolivia",
                "town": "La Paz / El Alto",
                "geo": {
                    "level": "town",
                    "pairs": "-16.483333 -68.183333",
                    "type": "point"
                }
            },
            "partner_id": 59,
            "posted_date": "2012-12-08T21:50:02Z",
            "planned_expiration_date": "2013-01-07T21:50:02Z",
            "loan_amount": 2025,
            "borrower_count": 11
        },
        {
            "id": 505152,
            "name": "Pozo De Jacob Group",
            "description": {
                "languages": [
                    "es",
                    "en"
                ]
            },
            "status": "fundraising",
            "funded_amount": 0,
            "basket_amount": 0,
            "image": {
                "id": 1251174,
                "template_id": 1
            },
            "activity": "Shoe Sales",
            "sector": "Retail",
            "use": "to buy shoes.",
            "location": {
                "country_code": "HN",
                "country": "Honduras",
                "town": "San Lorenzo",
                "geo": {
                    "level": "town",
                    "pairs": "13.416667 -87.45",
                    "type": "point"
                }
            },
            "partner_id": 118,
            "posted_date": "2012-12-08T21:50:02Z",
            "planned_expiration_date": "2013-01-07T21:50:02Z",
            "loan_amount": 1775,
            "borrower_count": 3
        },
        {
            "id": 504537,
            "name": "Bahodur",
            "description": {
                "languages": [
                    "ru",
                    "en"
                ]
            },
            "status": "fundraising",
            "funded_amount": 25,
            "basket_amount": 0,
            "image": {
                "id": 1249386,
                "template_id": 1
            },
            "activity": "Cattle",
            "sector": "Agriculture",
            "use": "to purchase cattle.",
            "location": {
                "country_code": "TJ",
                "country": "Tajikistan",
                "town": "Istaravshan",
                "geo": {
                    "level": "town",
                    "pairs": "39.910833 69.006389",
                    "type": "point"
                }
            },
            "partner_id": 63,
            "posted_date": "2012-12-08T21:10:02Z",
            "planned_expiration_date": "2013-01-07T21:10:02Z",
            "loan_amount": 1300,
            "borrower_count": 1
        },
        {
            "id": 505276,
            "name": "Sewenkani-25 Group",
            "description": {
                "languages": [
                    "es",
                    "en"
                ]
            },
            "status": "fundraising",
            "funded_amount": 0,
            "basket_amount": 0,
            "image": {
                "id": 1251407,
                "template_id": 1
            },
            "activity": "Tailoring",
            "sector": "Services",
            "use": "to buy fabric and thread",
            "location": {
                "country_code": "BO",
                "country": "Bolivia",
                "town": "La Paz",
                "geo": {
                    "level": "town",
                    "pairs": "-16.5 -68.15",
                    "type": "point"
                }
            },
            "partner_id": 110,
            "posted_date": "2012-12-08T18:30:02Z",
            "planned_expiration_date": "2013-01-07T18:30:02Z",
            "loan_amount": 950,
            "borrower_count": 2
        },
        {
            "id": 505273,
            "name": "Arco Iris Ii Group",
            "description": {
                "languages": [
                    "es",
                    "en"
                ]
            },
            "status": "fundraising",
            "funded_amount": 100,
            "basket_amount": 0,
            "image": {
                "id": 1251399,
                "template_id": 1
            },
            "activity": "Grocery Store",
            "sector": "Food",
            "use": "to buy a variety of groceries",
            "location": {
                "country_code": "BO",
                "country": "Bolivia",
                "town": "Santa Cruz",
                "geo": {
                    "level": "town",
                    "pairs": "-17.8 -63.166667",
                    "type": "point"
                }
            },
            "partner_id": 110,
            "posted_date": "2012-12-08T17:50:02Z",
            "planned_expiration_date": "2013-01-07T17:50:02Z",
            "loan_amount": 3750,
            "borrower_count": 9
        },
        {
            "id": 505268,
            "name": "Oliver",
            "description": {
                "languages": [
                    "en"
                ]
            },
            "status": "fundraising",
            "funded_amount": 75,
            "basket_amount": 0,
            "image": {
                "id": 1251378,
                "template_id": 1
            },
            "activity": "Charcoal Sales",
            "sector": "Retail",
            "use": "to buy sacks of charcoal ",
            "location": {
                "country_code": "UG",
                "country": "Uganda",
                "town": "Kampala",
                "geo": {
                    "level": "town",
                    "pairs": "0.315556 32.565556",
                    "type": "point"
                }
            },
            "partner_id": 112,
            "posted_date": "2012-12-08T17:30:02Z",
            "planned_expiration_date": "2013-01-07T17:30:02Z",
            "loan_amount": 225,
            "borrower_count": 1
        },
        {
            "id": 505148,
            "name": "Triunfadoras De 25 De Julio Group",
            "description": {
                "languages": [
                    "es",
                    "en"
                ]
            },
            "status": "fundraising",
            "funded_amount": 100,
            "basket_amount": 0,
            "image": {
                "id": 1251162,
                "template_id": 1
            },
            "activity": "Cloth & Dressmaking Supplies",
            "sector": "Retail",
            "use": "to buy fabric.",
            "location": {
                "country_code": "BO",
                "country": "Bolivia",
                "town": "La Paz / El Alto",
                "geo": {
                    "level": "town",
                    "pairs": "-16.483333 -68.183333",
                    "type": "point"
                }
            },
            "partner_id": 59,
            "posted_date": "2012-12-08T17:30:01Z",
            "planned_expiration_date": "2013-01-07T17:30:01Z",
            "loan_amount": 2200,
            "borrower_count": 8
        },
        {
            "id": 505149,
            "name": "Matilde Apolonio",
            "description": {
                "languages": [
                    "es",
                    "en"
                ]
            },
            "status": "fundraising",
            "funded_amount": 100,
            "basket_amount": 0,
            "image": {
                "id": 1251168,
                "template_id": 1
            },
            "activity": "Cattle",
            "sector": "Agriculture",
            "use": "to buy cows.",
            "location": {
                "country_code": "SV",
                "country": "El Salvador",
                "geo": {
                    "level": "country",
                    "pairs": "13.833333 -88.916667",
                    "type": "point"
                }
            },
            "partner_id": 167,
            "posted_date": "2012-12-08T17:30:01Z",
            "planned_expiration_date": "2013-01-07T17:30:01Z",
            "loan_amount": 1050,
            "borrower_count": 1
        }
    ]

}